// Validating benchmarks:
Assembly Blackhole.Perfomance which defines benchmarks references non-optimized Blackhole.Library
	If you own this dependency, please, build it in RELEASE.
	If you don't, you can disable this policy by using 'config.WithOptions(ConfigOptions.DisableOptimizationsValidator)'.
Assembly Blackhole.Perfomance which defines benchmarks is non-optimized
Benchmark was built without optimization enabled (most probably a DEBUG configuration). Please, build it in RELEASE.
If you want to debug the benchmarks, please see https://benchmarkdotnet.org/articles/guides/troubleshooting.html#debugging-benchmarks.
